<?xml version="1.0" encoding="UTF-8" standalone="no"?>
<svg width="51px" height="50px" viewBox="0 0 51 50" version="1.1" xmlns="http://www.w3.org/2000/svg" xmlns:xlink="http://www.w3.org/1999/xlink">
    <!-- Generator: Sketch 3.7.2 (28276) - http://www.bohemiancoding.com/sketch -->
    <title>Fill 9</title>
    <desc>Created with Sketch.</desc>
    <defs></defs>
    <g id="pages" stroke="none" stroke-width="1" fill="none" fill-rule="evenodd">
        <g id="Drawer" transform="translate(-1220.000000, -36.000000)" fill="#FFFFFF">
            <g id="Drawer-Copy" transform="translate(1050.000000, -42.000000)">
                <g id="Drawer">
                    <path d="M203.48405,110.403261 C200.640436,110.403261 198.160743,108.792391 196.464629,107.020652 L198.462371,104.848913 C199.786914,106.384783 201.577014,107.378261 203.48405,107.378261 C205.892707,107.378261 207.90575,105.570652 207.90575,102.942391 C207.90575,100.313043 205.892707,98.5054348 203.48405,98.5054348 C198.122493,98.5054348 194.101871,110.403261 186.670443,110.403261 C182.624686,110.403261 179.31005,107.195652 179.31005,102.942391 C179.31005,98.6880435 182.624686,95.4804348 186.670443,95.4804348 C189.481271,95.4804348 191.980636,97.1391304 193.696421,98.9608696 L191.708514,101.163043 C190.308564,99.5076087 188.5589,98.5054348 186.670443,98.5054348 C184.261786,98.5054348 182.249836,100.313043 182.249836,102.942391 C182.249836,105.570652 184.261786,107.378261 186.670443,107.378261 C192.3992,107.378261 196.061364,95.4804348 203.48405,95.4804348 C207.529807,95.4804348 210.845536,98.6880435 210.845536,102.942391 C210.845536,107.195652 207.529807,110.403261 203.48405,110.403261 M195.077793,78 C181.226921,78 170,89.1663043 170,102.942391 C170,116.717391 181.226921,127.884783 195.077793,127.884783 C208.927571,127.884783 220.155586,116.717391 220.155586,102.942391 C220.155586,89.1663043 208.927571,78 195.077793,78" id="Fill-9"></path>
                </g>
            </g>
        </g>
    </g>
</svg>